📡电视频道,#genre#

CCTV1,http://120.196.232.20:8088/rrs03.hw.gmcc.net/PLTV/651/224/3221226737/1.m3u8
CCTV1,http://223.109.210.41/4309-tx.otvstream.otvcloud.com/otv/skcc/live/channel1/index.m3u8
CCTV2,http://120.196.232.53:8088/rrs03.hw.gmcc.net/PLTV/651/224/3221226739/1.m3u8
CCTV2,http://223.109.210.41/4403-tx.otvstream.otvcloud.com/otv/skcc/live/channel2/index.m3u8
CCTV3,http://120.196.232.49:8088/rrs03.hw.gmcc.net/PLTV/651/224/3221226720/1.m3u8
CCTV3,http://223.109.210.41/4403-tx.otvstream.otvcloud.com/otv/skcc/live/channel3/index.m3u8
CCTV4,http://120.196.232.28:8088/rrs03.hw.gmcc.net/PLTV/651/224/3221226725/1.m3u8
CCTV4,http://223.109.210.41/4309-tx.otvstream.otvcloud.com/otv/skcc/live/channel4/index.m3u8
CCTV5,http://120.196.232.31:8088/rrs03.hw.gmcc.net/PLTV/651/224/3221226731/1.m3u8
CCTV5,http://223.109.210.41/4309-tx.otvstream.otvcloud.com/otv/skcc/live/channel5/index.m3u8
CCTV5*+-++,http://120.196.232.52:8088/rrs03.hw.gmcc.net/PLTV/651/224/3221226711/1.m3u8
CCTV5*+-++,http://223.109.210.41/1301-tx.otvstream.otvcloud.com/otv/skcc/live/channel41140/index.m3u8
CCTV5,http://223.109.210.41/1301-tx.otvstream.otvcloud.com/otv/skcc/live/channel41140/index.m3u8
CCTV6,http://120.196.232.25:8088/rrs03.hw.gmcc.net/PLTV/651/224/3221226699/1.m3u8
CCTV6,http://223.109.210.41/1301-tx.otvstream.otvcloud.com/otv/skcc/live/channel6/index.m3u8
CCTV7,http://120.196.232.32:8088/rrs03.hw.gmcc.net/PLTV/651/224/3221226721/1.m3u8
CCTV7,http://223.109.210.41/4309-tx.otvstream.otvcloud.com/otv/skcc/live/channel7/index.m3u8
CCTV8,http://120.196.232.18:8088/rrs03.hw.gmcc.net/PLTV/651/224/3221226715/1.m3u8
CCTV8,http://223.109.210.41/4403-tx.otvstream.otvcloud.com/otv/skcc/live/channel41142/index.m3u8
CCTV9,http://120.196.232.36:8088/rrs03.hw.gmcc.net/PLTV/651/224/3221226651/1.m3u8
CCTV9,http://223.109.210.41/4403-tx.otvstream.otvcloud.com/otv/skcc/live/channel9/index.m3u8
CCTV10,http://120.196.232.28:8088/rrs03.hw.gmcc.net/PLTV/651/224/3221226708/1.m3u8
CCTV10,http://223.109.210.41/4309-tx.otvstream.otvcloud.com/otv/skcc/live/channel10/index.m3u8
CCTV11,http://120.196.232.55:8088/rrs03.hw.gmcc.net/PLTV/651/224/3221226714/1.m3u8
CCTV11,http://223.109.210.41/1301-tx.otvstream.otvcloud.com/otv/skcc/live/channel41/index.m3u8
CCTV12,http://120.196.232.52:8088/rrs03.hw.gmcc.net/PLTV/651/224/3221226723/1.m3u8
CCTV12,http://223.109.210.41/1301-tx.otvstream.otvcloud.com/otv/skcc/live/channel11/index.m3u8
CCTV13,http://120.196.232.22:8088/rrs03.hw.gmcc.net/PLTV/651/224/3221226717/1.m3u8
CCTV13,http://223.109.210.41/4309-tx.otvstream.otvcloud.com/otv/skcc/live/channel39/index.m3u8
CCTV14,http://120.196.232.28:8088/rrs03.hw.gmcc.net/PLTV/651/224/3221226645/1.m3u8
CCTV14,http://223.109.210.41/1301-tx.otvstream.otvcloud.com/otv/skcc/live/channel12/index.m3u8
CCTV15,http://120.196.232.38:8088/rrs03.hw.gmcc.net/PLTV/651/224/3221226648/1.m3u8
CCTV15,http://223.109.210.41/4403-tx.otvstream.otvcloud.com/otv/skcc/live/channel40/index.m3u8
CCTV16,http://120.196.232.15:8088/rrs03.hw.gmcc.net/PLTV/651/224/3221226825/1.m3u8
CCTV16,http://223.109.210.41/1301-tx.otvstream.otvcloud.com/otv/skcc/live/channel116/index.m3u8
CCTV17,http://120.196.232.43:8088/rrs03.hw.gmcc.net/PLTV/651/224/3221226727/1.m3u8
CCTV17,http://223.109.210.41/4309-tx.otvstream.otvcloud.com/otv/skcc/live/channel90/index.m3u8


北京卫视,https://video.lzjtu.edu.cn/liverespath/f6555824f9b96b7f0adabeadabbcca1eb143af34/index.m3u8
湖北卫视,https://video.lzjtu.edu.cn/liverespath/a8e4cf2bade25844b998d7743d83331412ea841f/index.m3u8
湖南卫视,https://video.lzjtu.edu.cn/liverespath/9b1ccba5a2c611bb5d7c96243695572090cca5fd/index.m3u8
天津卫视,https://video.lzjtu.edu.cn/liverespath/41433c450cf4747cf2600adecc560bc90f344182/index.m3u8
东南卫视,https://video.lzjtu.edu.cn/liverespath/7a202b5f39c56db4ca3ca7a3dc21b073c9bc472a/index.m3u8
广东卫视,https://video.lzjtu.edu.cn/liverespath/57e80ee85ec1f4e523e1bca55f5a676abd292db8/index.m3u8
重庆卫视,https://video.lzjtu.edu.cn/liverespath/b14734af7f740eb61419248c57e25551a7d1093f/index.m3u8
广西卫视,https://video.lzjtu.edu.cn/liverespath/15f9ffc8f72eb7f7ddfe79669f246e4db4acc3c1/index.m3u8
广西卫视,http://live.gxrb.com.cn/tv/gxtvlive03/index.m3u8
浙江卫视,https://video.lzjtu.edu.cn/liverespath/f650ba03bb4883fe67a1fb7c193a00a4c0c93881/index.m3u8
四川卫视,https://video.lzjtu.edu.cn/liverespath/ca3f021632b48e6960797776657926074723d276/index.m3u8
江西卫视,https://video.lzjtu.edu.cn/liverespath/5262d7f97311b82a4a460f3b8221e4a7d394c2c0/index.m3u8
江苏卫视,https://video.lzjtu.edu.cn/liverespath/0be64515076e489456de2f33e7b58ff1b392d3b3/index.m3u8
陕西卫视,https://video.lzjtu.edu.cn/liverespath/ebc9ec3e297c071df95d759b6313b9d9dbc3dbda/index.m3u8
四川卫视,https://video.lzjtu.edu.cn/liverespath/ca3f021632b48e6960797776657926074723d276/index.m3u8
河北卫视,https://video.lzjtu.edu.cn/liverespath/0d0303a991ca71e06290b546e34104dbe0d0c64a/index.m3u8
山西卫视,https://video.lzjtu.edu.cn/liverespath/74908123d020c1a9f55e8a9652973187bcd07970/index.m3u8
山东卫视,https://video.lzjtu.edu.cn/liverespath/8b205af319dcc92c60a69a96423af21b24a29ca0/index.m3u8
安徽卫视,https://video.lzjtu.edu.cn/liverespath/6e91e17de838dbf7c77f9ed8e41726bd4a1516f5/index.m3u8
河南卫视,https://video.lzjtu.edu.cn/liverespath/4bc76db1677c6cd2176e652ed6fc1cd44d8c297b/index.m3u8
吉林卫视,http://hls1.avap.jilintv.cn/zqvk7vpj/channel/0533b55e42354f4f802bdec78e26b571/1.m3u8
宁夏卫视,https://video.lzjtu.edu.cn/liverespath/eefad27700cf7ea30b4f5145f0b8d466a27c1478/index.m3u8
云南卫视,https://video.lzjtu.edu.cn/liverespath/d45a277ca433670e3f463b497783af19bb2c63f8/index.m3u8
海南卫视,https://video.lzjtu.edu.cn/liverespath/6439a34cf7b96bdfd8c4234fc91cb4912c9becd1/index.m3u8
贵州卫视,https://video.lzjtu.edu.cn/liverespath/11e39871ee899ed6c7bddadb1c83cbd658562297/index.m3u8
甘肃卫视,https://video.lzjtu.edu.cn/liverespath/975463fd39229112f75925af024d6ed11de84a0e/index.m3u8
内蒙古台,https://video.lzjtu.edu.cn/liverespath/5a601b122fcaacb6480b65cb74ee8f76347020d6/index.m3u8
辽宁卫视,https://video.lzjtu.edu.cn/liverespath/73aedb8ffd21b3b8afe4664591d4cb3a5cced827/index.m3u8
黑龙江台,https://video.lzjtu.edu.cn/liverespath/fe1745c7599e85d0a34fa0ad3986ef25c2ed7c6f/index.m3u8
青海卫视,https://video.lzjtu.edu.cn/liverespath/468aa6e90a67946eeb0e862e4b9f2764ee13cc75/index.m3u8
新疆卫视,https://video.lzjtu.edu.cn/liverespath/d75bf52e702ca0fb44344fc2e86e7675ac112ec7/index.m3u8
西藏卫视,https://video.lzjtu.edu.cn/liverespath/223db5dc75cab2536cbebcda8e6730ff6bf58309/index.m3u8



深圳卫视,http://120.196.232.124:8088/rrs03.hw.gmcc.net/PLTV/651/224/3221226688/1.m3u8
浙江卫视,http://120.196.232.124:8088/rrs03.hw.gmcc.net/PLTV/651/224/3221226690/1.m3u8
湖南卫视,http://120.196.232.124:8088/rrs03.hw.gmcc.net/PLTV/651/224/3221226698/1.m3u8
江苏卫视,http://120.196.232.124:8088/rrs03.hw.gmcc.net/PLTV/651/224/3221226692/1.m3u8
安徽卫视,http://120.196.232.124:8088/rrs03.hw.gmcc.net/PLTV/651/224/3221226655/1.m3u8
安徽卫视,http://120.196.232.124:8088/rrs03.hw.gmcc.net/PLTV/651/224/3221226664/1.m3u8
北京卫视,http://120.196.232.124:8088/rrs03.hw.gmcc.net/PLTV/651/224/3221226719/1.m3u8
东方卫视,http://120.196.232.124:8088/rrs03.hw.gmcc.net/PLTV/651/224/3221226734/1.m3u8
东南卫视,http://120.196.232.124:8088/rrs03.hw.gmcc.net/PLTV/651/224/3221226670/1.m3u8
贵州卫视,http://120.196.232.124:8088/rrs03.hw.gmcc.net/PLTV/651/224/3221226672/1.m3u8
海南卫视,http://120.196.232.124:8088/rrs03.hw.gmcc.net/PLTV/651/224/3221226679/1.m3u8
湖北卫视,http://120.196.232.124:8088/rrs03.hw.gmcc.net/PLTV/651/224/3221226713/1.m3u8
江西卫视,http://120.196.232.124:8088/rrs03.hw.gmcc.net/PLTV/651/224/3221226682/1.m3u8
江西卫视,http://120.196.232.124:8088/rrs03.hw.gmcc.net/PLTV/651/224/3221226726/1.m3u8
辽宁卫视,http://120.196.232.124:8088/rrs03.hw.gmcc.net/PLTV/651/224/3221226689/1.m3u8
龙江卫视,http://120.196.232.124:8088/rrs03.hw.gmcc.net/PLTV/651/224/3221226716/1.m3u8
山东卫视,http://120.196.232.124:8088/rrs03.hw.gmcc.net/PLTV/651/224/3221226693/1.m3u8
天津卫视,http://120.196.232.124:8088/rrs03.hw.gmcc.net/PLTV/651/224/3221226686/1.m3u8
重庆卫视,http://120.196.232.124:8088/rrs03.hw.gmcc.net/PLTV/651/224/3221226680/1.m3u8
延边频道,http://live.ybtvyun.com/video/s10006-44f040627ca1/index.m3u8
青海频道,http://stream.qhbtv.com/qhws/sd/live.m3u8
河北频道,http://tv.pull.hebtv.com/jishi/weishipindao.m3u8?t=2510710360&k=3944fff7fdd8f8caf6adce2c9a0ef126

北京卫视,http://39.134.24.162/dbiptv.sn.chinamobile.com/PLTV/88888890/224/3221225796/index.m3u8
深圳卫视,http://39.134.24.162/dbiptv.sn.chinamobile.com/PLTV/88888890/224/3221225752/index.m3u8
湖北卫视,http://39.134.24.162/dbiptv.sn.chinamobile.com/PLTV/88888890/224/3221225760/index.m3u8
天津卫视,http://39.134.24.162/dbiptv.sn.chinamobile.com/PLTV/88888890/224/3221225765/index.m3u8
海南卫视,http://39.134.24.162/dbiptv.sn.chinamobile.com/PLTV/88888890/224/3221225769/index.m3u8
重庆卫视,http://39.134.24.162/dbiptv.sn.chinamobile.com/PLTV/88888890/224/3221225791/index.m3u8
贵州卫视,http://39.134.24.162/dbiptv.sn.chinamobile.com/PLTV/88888890/224/3221225793/index.m3u8
江苏卫视,http://39.134.24.166/dbiptv.sn.chinamobile.com/PLTV/88888890/224/3221226200/index.m3u8
深圳卫视,http://39.134.24.166/dbiptv.sn.chinamobile.com/PLTV/88888890/224/3221226205/index.m3u8
黑龙江卫视,http://39.134.24.162/dbiptv.sn.chinamobile.com/PLTV/88888890/224/3221225802/index.m3u8
江苏卫视,http://39.134.24.166/dbiptv.sn.chinamobile.com/PLTV/88888890/224/3221226200/index.m3u8?
河北卫视,http://event.pull.hebtv.com/jishi/weishipindao.m3u8
西藏卫视,http://140.249.29.151/liveplay-kk.rtxapp.com/live/program/live/xzws/2500000/mnf.m3u8
新疆卫视,http://140.249.29.151/liveplay-kk.rtxapp.com/live/program/live/xjws/1300000/mnf.m3u8
🏆

4k影院画质,http://maomao.kandiantv.cn/douyu1.php?id=9249162
4k影院画质,http://epg.112114.xyz/douyu/9249162